categorie;enonce;reponse_1;reponse_2;reponse_3;reponse_4;auteur;tags
12;"On définit un dictionnaire :
<python>
d = {'couleur': 'vert', 'taille': 42, 'marque': 'le coq sportif'}
</python>
Quelle est la valeur de l'expression <tt>d.keys()</tt> ?";<tt>['couleur', 'taille', 'marque']</tt>;<tt>[('couleur', 'vert'), ('taille', 42), ('marque', 'le coq sportif')]</tt>;<tt>['vert', 42, 'le coq sportif']</tt>;<tt>['couleur': 'vert', 'taille': 42, 'marque': 'le coq sportif']</tt>;BNS;dictionnaire
12;Comment peut-on accéder à la valeur associée à une clé dans un dictionnaire ?;on peut y accéder directement à partir de la clé;il faut parcourir le dictionnaire avec une boucle à la recherche de la clé;on ne peut pas accéder à une valeur contenue dans un dictionnaire à partir d’une clé;il faut d’abord déchiffrer la clé pour accéder à un dictionnaire;BNS;dictionnaire
12;"On définit le dictionnaire <tt>d = {""a"": 1, ""b"": 2, ""c"": 3, ""z"": 26}</tt>.

Quelle expression permet de récupérer la valeur de la clé <tt>""z""</tt> ?";"<tt>d[""z""]</tt>";<tt>d[4]</tt>;<tt>d[26]</tt>;<tt>d[z]</tt>;BNS;dictionnaire
12;"Quel est le type de la variable <tt>billes</tt> définie par :
<python>
billes = {'vert': 6, 'rouge': 15, 'bleu': 11, 'jaune': 2, 'orange': 17 }
</python>";c'est un dictionnaire;c'est une séquence;c'est une liste;c'est une liste de listes;BNS;dictionnaire
12;"Considérons le dictionnaire suivant :
<python>
resultats = {""Paul"": 5, ""Amina"": 1, ""Léon"": 9, ""Benoit"": 3}
</python>

Quelle affirmation est correcte ?";"<tt>resultats[""Amina""] vaut 1</tt>";"<tt>resultats[1] vaut ""Amina""</tt>";"<tt>""Paul"" est une valeur de ce dictionnaire</tt>";<tt>9 est une clé de ce dictionnaire</tt>;BNS;dictionnaire
12;"On définiet le dictionnaire suivante :
<python>
d = { 'tigre': 'félin', 'tortue': 'reptile', 'renard': 'canidé' }
</python>

Laquelle des quatre expressions suivantes ne provoquera pas d'erreur ?";<tt>d['tortue']</tt>;<tt>d['reptile']</tt>;<tt>d['tortue': 'reptile']</tt>;<tt>d[1]</tt>;BNS;dictionnaire
12;"On exécute le script suivant :
<python>
inventaire = {""pommes"": 430, ""bananes"": 312, ""oranges"": 274, ""poires"": 137}
stock = 0
for fruit in inventaire.keys():
    if fruit != ""bananes"":
        stock = stock + inventaire[fruit]
</python>

Que contient la variable <tt>stock</tt> à la fin de cette exécution ?";<tt>841</tt>;<tt>{430, 274, 137}</tt>;<tt>312</tt>;"<tt>{ ""pommes"", ""oranges"", ""poires"" }</tt>";BNS;dictionnaire
12;"On définit ainsi une liste <tt>P</tt> :

<python>
P = [
    {""nom"": ""Turing"", ""prénom"": ""Alan"", ""âge"": 28},
    {""nom"": ""Lovelace"", ""prénom"": ""Ada"", ""âge"": 27},
]
</python>
Que fait alors l'instruction <tt>P[1][""âge""] = 25</tt> ?";elle modifie la valeur de la clé âge du deuxième élément de la liste <tt>P</tt>;elle modifie la valeur de la clé âge du premier élément de la liste <tt>P</tt>;elle donne la longueur de la liste <tt>P</tt>;elle donne la longueur du premier élément de la liste <tt>P</tt>;BNS;dictionnaire
12;"La variable <tt>sequence</tt> contient une liste de lettres, éventuellement répétées, choisies parmi 'A', 'B', 'C', 'D'. On veut créer un dictionnaire effectifs associant à chaque lettre le nombre de fois qu'elle apparaît dans la liste sequence.

Par exemple si sequence contient ['A', 'B', 'B', 'D', 'B', 'A'], effectifs doit contenir {'A':2, 'B':3, 'C':0, 'D':1}.

Parmi les scripts suivants, lequel réalise cet objectif ?";"<python>
effectifs = {'A':0, 'B':0, 'C':0, 'D':0}
for lettre in sequence:
    effectifs[lettre] = effectifs[lettre] + 1
</python>";"<python>
effectifs = {}
for lettre in sequence:
    effectifs[lettre] = effectifs[lettre] + 1
</python>";"<python>
effectifs = {'A':0, 'B':0, 'C':0, 'D':0}
for lettre in effectifs.keys():
    effectifs[lettre] = len([lettre in effectifs])
</python>";"<python>
effectifs = {}
for lettre in effectifs.keys():
    effectifs[lettre] = len([lettre in effectifs])
</python>";BNS;dictionnaire
12;"On a défini
<python>
dico = {""a"": (1, 2, 3), ""b"": (4, 5, 6)}
</python>
Quelle est la valeur de l'expression dico['a'][1]?";<tt>2</tt>;<tt>(1, 2, 3)</tt>;<tt>1</tt>;cette expression est incorrecte, l'évaluer déclenche une erreur;BNS;dictionnaire
12;"Quelle est la valeur affichée à l'exécution du programme Python suivant ?
<python>
ports = {""http"": 80, ""imap"": 142, ""smtp"": 25}
ports[""ftp""] = 21
print(ports[""ftp""])
</python>";<tt>21</tt>;<tt>Key not found</tt>;<tt>3</tt>;<tt>{ 'ftp': 21 }</tt>;BNS;dictionnaire
12;"On dispose du dictionnaire <tt>regions</tt> ci-dessous :
<python>
regions = {
    ""Mayotte"": 376,
    ""Pays de la Loire"": 32082,
    ""La Réunion"": 2504,
    ""Grand Est"": 57441,
    ""Martinique"": 1128,
    ""Corse"": 8680,
    ""Bretagne"": 27208,
    ""Nouvelle-Aquitaine"": 84036,
}
</python>

Parmi les instructions suivantes, laquelle permet d'ajouter une nouvelle région ?";<tt>regions['Hauts de France'] = 31806</tt>;"<tt>INSERT ""'Hauts de France':31806"" INTO regions</tt>";<tt>regions = dict(['Hauts de France'] = 31806)</tt>;<tt>regions('Hauts de France') = 31806</tt>;BNS;dictionnaire
12;"On définit ainsi une liste <tt>P</tt> :

<python>
P = [
    {""nom"": ""Turing"", ""prénom"": ""Alan"", ""âge"": 28},
    {""nom"": ""Lovelace"", ""prénom"": ""Ada"", ""âge"": 27},
]
</python>

Comment accéder à la chaîne de caractères <tt>""Alan""</tt> ?";"<tt>P[0][""prénom""]</tt>";<tt>P[0]</tt>;"<tt>P[1][""prénom""]</tt>";<tt>P[1]</tt>;BNS;dictionnaire
12;"On exécute le script suivant :
<python>
def ajoute(stock, element, quantite):
    if element in stock:
        stock[element] = stock[element] + quantite
    else:
        stock[element] = quantite
stock = {""clous"": 14, ""vis"": 27, ""boulons"": 8, ""écrous"": 24}
ajoute(stock, ""vis"", 5)
ajoute(stock, ""chevilles"", 3)
</python>

Quelle est la valeur de la variable <tt>stock</tt> à la fin de cette exécution ?";"<tt>{""clous"": 14, ""vis"": 32, ""boulons"": 8, ""écrous"": 24, ""chevilles"": 3}</tt>";"<tt>{""clous"": 14, ""vis"": 27, ""boulons"": 8, ""écrous"": 24}</tt>";"<tt>{""clous"": 14, ""vis"": 32, ""boulons"": 8, ""écrous"": 24}</tt>";"<tt>{""clous"": 14, ""vis"": 27, ""boulons"": 8, ""écrous"": 24, ""chevilles"": 3}</tt>";BNS;dictionnaire
12;"On considère le code suivant :

<python>
D = { 'a': '1', '2': 'a', 'b': 'a', 'c': '3'}
</python>

Que vaut <tt>D['a']</tt> à la fin de son exécution ?";<tt>'1'</tt>;<tt>2</tt>;<tt>[ '2', 'b' ]</tt>;<tt>[ '1', '3' ]</tt>;BNS;dictionnaire
12;"On a défini un dictionnaire :
<python>
contacts = {'Paul': '0601010182', 'Jacques': '0602413824', 'Claire': '0632451153'}
</python>
Quelle instruction écrire pour ajouter à ce dictionnaire un nouveau contact nommé Juliette avec le numéro de téléphone 0603040506 ?";<tt>contacts['Juliette'] = '0603040506'</tt>;<tt>contacts.append('Juliette': '0603040506')</tt>;<tt>contacts.append('Juliette', '0603040506')</tt>;<tt>'Juliette': '0603040506'</tt>;BNS;dictionnaire
12;"On définit le dictionnaire suivant qui associe nom et âge de trois élèves :
<python>
dico = {""Herve"": 15, ""Kevin"":17, ""Fatima"":16}
</python>

Comment accéder à l'âge de Kevin ?";"<tt>dico[""Kevin""]</tt>";<tt>dico[1]</tt>;<tt>dico[Kevin]</tt>;"<tt>dico(""Kevin"")</tt>";BNS;dictionnaire
12;"Pour gérer certaines données EXIF de photographies, on a utilisé le code suivant pour stocker dans une liste L de dictionnaires quelques données :
<python>
L = []
L.append({'marque': 'Canon', 'modele': 'EOS 7D', 'focale': '19mm', 'flash': False})
L.append({'marque': 'Nikon', 'modele': 'CoolPix A1000', 'focale': '19mm', 'flash': True})
L.append({'marque': 'Sony', 'modele': 'HK 350', 'focale': '24mm', 'flash': False})
L.append({'marque': 'Sony', 'modele': 'HK 350', 'focale': '19mm', 'flash': True})
# ……
# et ainsi de suite, d'autres informations ont été ajoutées
# ……
</python>

On veut extraire de ces informations la liste Z des photographies obtenues avec un Canon ou un Nikon et une distance focale de 19 mm.

Quelle instruction permet de réaliser cette extraction ?";<tt>Z = [ p for p in L if (p['marque'] == 'Canon' and p['focale'] == '19mm') or (p['marque'] == 'Nikon' and p['focale'] == '19mm') ]</tt>;<tt>Z = [ p for p in L if (p['marque'] == 'Canon' or p['focale'] == '19mm') and (p['marque'] == 'Nikon' or p['focale'] == '19mm') ]</tt>;<tt>Z = [ p for p in L if (p['marque'] == 'Canon' and p['focale'] == '19mm') and (p['marque'] == 'Nikon' and p['focale'] == '19mm') ]</tt>;<tt>Z = [ p for p in L if (p['marque'] == 'Canon' or p['focale'] == '19mm') or (p['marque'] == 'Nikon' or p['focale'] == '19mm') ]</tt>;BNS;dictionnaire
12;"On définit :
<python>
contacts = {
    ""Toto"": ""toto@nsi.fr"",
    ""Chloé"": ""chloe@nsi.com"",
    ""Paul"": ""paul@nsi.net"",
    ""Clémence"": ""clemence@nsi.org"",
}
</python>
Parmi les propositions suivantes, laquelle est exacte ?";"<tt>""Chloé"" est une clé de la variable contacts</tt>";"<tt>""Chloé"" est une valeur de la variable contacts</tt>";"<tt>""Chloé"" est un attribut de la variable contacts</tt>";"<tt>""Chloé"" est un champ de la variable contacts</tt>";BNS;dictionnaire
12;"On considère la table suivants :
<python>
t = [
    {""type"": ""marteau"", ""prix"": 17, ""quantité"": 32},
    {""type"": ""scie"", ""prix"": 24, ""quantité"": 3},
    {""type"": ""tournevis"", ""prix"": 8, ""quantité"": 45},
]
</python>
Quelle expression permet d'obtenir la quantié de scies ?";"<tt>t[1][""quantité""]</tt>";"<tt>t[2][""quantité""]</tt>";"<tt>t[""quantité""][1]</tt>";"<tt>t[""scies""][""quantité""]</tt>";BNS;dictionnaire
12;"On définit ainsi une liste t :
<python>
t = [
    {""id"": 1, ""age"": 23, ""sejour"": ""PEKIN""},
    {""id"": 2, ""age"": 27, ""sejour"": ""ISTANBUL""},
    {""id"": 3, ""age"": 53, ""sejour"": ""LONDRES""},
    {""id"": 4, ""age"": 41, ""sejour"": ""ISTANBUL""},
    {""id"": 5, ""age"": 62, ""sejour"": ""RIO""},
    {""id"": 6, ""age"": 28, ""sejour"": ""ALGER""},
]
</python>
Quelle affirmation est correcte ?";<tt>t est une liste de dictionnaires</tt>;<tt>t est une liste de listes</tt>;<tt>t est un dictionnaire de listes</tt>;<tt>t est une liste de tuples</tt>;BNS;dictionnaire
12;"On définit la variable suivante : <tt>lettres = {""a"": 1, ""b"": 2, ""c"": 3}</tt>.

Quelle est la valeur de l'expression <tt>list(lettres.keys())</tt> ?";"<tt>[""a"", ""b"", ""c""]</tt>";<tt>[a, b, c]</tt>;<tt>[1, 2, 3]</tt>;"<tt>{""a"": 1, ""b"": 2, ""c"": 3}</tt>";BNS;dictionnaire
12;"On exécute le script suivant :
<python>
notes = {""Paul"": 12, ""Jean"": 16, ""Clara"": 14, ""Aïssa"": 18}
t = list(notes.keys())
</python>
Quelle est la valeur de t à la fin de cette exécution ?";"<tt>[""Paul"", '""Jean"", ""Clara"", ""'Aïssa']</tt>";<tt>Paul</tt>;<tt>[12, 16, 14, 18]</tt>;"<tt>[ ""Paul"": 12, ""Jean"": 16, ""Clara"": 14, ""Aïssa"": 18 ]</tt>";BNS;dictionnaire
12;"Par quelle expression remplacer les pointillés dans le programme Python suivant, pour que son exécution affiche le numéro de Dupond ?
<python>
repertoire = [
    {""nom"": ""Dupont"", ""tel"": ""5234""},
    {""nom"": ""Tournesol"", ""tel"": ""5248""},
    {""nom"": ""Dupond"", ""tel"": ""3452""},
]
for i in range(len(repertoire)):
    if ... :
        print(repertoire[i][""tel""])
</python>";"<tt>repertoire[i][""nom""] == ""Dupond""</tt>";"<tt>nom == ""Dupond""</tt>";"<tt>repertoire[""nom""] == ""Dupond""</tt>";"<tt>repertoire[i] == ""Dupond""</tt>";BNS;dictionnaire
12;"On définit :
<python>
T = [
    {""fruit"": ""banane"", ""nombre"": 25},
    {""fruit"": ""orange"", ""nombre"": 124},
    {""fruit"": ""pomme"", ""nombre"": 75},
    {""fruit"": ""kiwi"", ""nombre"": 51},
]
</python>
Quelle expression a-t-elle pour valeur le nombre de pommes ?";"<tt>T[2][""nombre""]</tt>";"<tt>T[2, ""nombre""]</tt>";"<tt>T[3][""nombre""]</tt>";"<tt>T[3, ""nombre""]</tt>";BNS;dictionnaire
12;"Quelle expression Python permet d’accéder au numéro de téléphone de Tournesol, sachant que le répertoire a été défini par l’affectation suivante :
<python>
repertoire = [
    {""nom"": ""Dupont"", ""tel"": ""5234""},
    {""nom"": ""Tournesol"", ""tel"": ""5248""},
    {""nom"": ""Dupond"", ""tel"": ""3452""},
]
</python>";"<tt>repertoire[1][""tel""]</tt>";"<tt>repertoire[""Tournesol""]</tt>";"<tt>repertoire[""tel""][1]</tt>";"<tt>repertoire[""Tournesol""][tel]</tt>";BNS;dictionnaire
12;"On définit ainsi une liste <tt>t</tt> puis une liste <tt>r</tt> :

<python>
t = [
    {""id"": 1, ""age"": 23, ""sejour"": ""PEKIN""},
    {""id"": 2, ""age"": 27, ""sejour"": ""ISTANBUL""},
    {""id"": 3, ""age"": 53, ""sejour"": ""LONDRES""},
    {""id"": 4, ""age"": 41, ""sejour"": ""ISTANBUL""},
    {""id"": 5, ""age"": 62, ""sejour"": ""RIO""},
    {""id"": 6, ""age"": 28, ""sejour"": ""ALGER""},
]
r = [c for c in t if c[""age""] > 30 and c[""sejour""] == ""ISTANBUL""]
</python>

Combien la liste <tt>r</tt> contient-elle d'éléments ?";1;0;2;3;BNS;dictionnaire
12;"On définit ainsi une liste <tt>t</tt> :

<python>
t = [
    {""id"": 1, ""age"": 23, ""sejour"": ""PEKIN""},
    {""id"": 2, ""age"": 27, ""sejour"": ""ISTANBUL""},
    {""id"": 3, ""age"": 53, ""sejour"": ""LONDRES""},
    {""id"": 4, ""age"": 41, ""sejour"": ""ISTANBUL""},
    {""id"": 5, ""age"": 62, ""sejour"": ""RIO""},
    {""id"": 6, ""age"": 28, ""sejour"": ""ALGER""},
]
</python>

Quelle expression vaut-elle <tt>'RIO'</tt> parmi les suivantes ?";"<tt>t[4][""sejour""]</tt>";"<tt>t[5][""sejour""]</tt>";"<tt>t(""id""=5)</tt>";"<tt>t.[""id""=5].[""sejour""]</tt>";BNS;dictionnaire
12;"On définit :
<python>
stock = [
    {""nom"": ""flageolets"", ""quantité"": 50, ""prix"": 5.68},
    {""nom"": ""caviar"", ""quantité"": 0, ""prix"": 99.99},
    ...,
    ...,
    {""nom"": ""biscuits"", ""quantité"": 100, ""prix"": 7.71},
]
</python>
Quelle expression permet d'obtenir la liste des noms des produits effectivement présents dans le stock (c'est-à-dire ceux dont la quantité n'est pas nulle) ?";"<tt>[p[""nom""] for p in stock if p[""quantité""] != 0]</tt>";"<tt>[""nom"" for p in stock if ""quantité"" != 0]</tt>";"<tt>[p for p in stock if p[""quantité""] != 0]</tt>";"<tt>[p[""nom""] for p in stock if ""quantité"" != 0]</tt>";BNS;dictionnaire
12;"On a défini le dictionnaire suivant :
<python>
repertoire = [
    {""nom"": ""Francette"", ""poste"": 412},
    {""nom"": ""Jeanne"", ""poste"": 222},
    {""nom"": ""Éric"", ""poste"": 231},
]
</python>

Quelle expression permet d'accéder au poste d'Éric ?";"<tt>repertoire[2][""poste""]</tt>";"<tt>repertoire[""Éric""][""poste""]</tt>";"<tt>repertoire[""Éric""]</tt>";"<tt>repertoire[""poste""][2]</tt>";BNS;dictionnaire
