categorie;enonce;reponse_1;reponse_2;reponse_3;reponse_4;auteur;tags
11;Quelle est l'écriture binaire, en complément à deux sur 8 bits, de l'entier négatif <tt>–7</tt> ?;<tt>1111 1001</tt>;<tt>0000 0111</tt>;<tt>1000 0111</tt>;<tt>1111 1000</tt>;BNS;binaire|entier|relatif
11;Un nombre entier signé est codé en complément à deux sur 8 bits par : <tt>0111 0101</tt>. Que peut-on dire ?;c'est un nombre positif;c'est un nombre négatif;7 bits auraient suffi à représenter cet entier signé en complément à deux;c'est un nombre pair;BNS;binaire|entier|relatif
11;Quel est l'entier relatif codé en complément à 2 sur un octet par le code <tt>1111 1111</tt> ?;<tt>-1</tt>;<tt>128</tt>;<tt>-255</tt>;<tt>127</tt>;BNS;binaire|entier|relatif
11;Soit <tt>n</tt> l'entier dont la représentation binaire en complément à deux codée sur 8 bits est <tt>0110 1110</tt>. Quelle est la représentation binaire de <tt>-n</tt> ?;<tt>1001 0010</tt>;<tt>0001 0001</tt>;<tt>0001 0010</tt>;<tt>1001 0001</tt>;BNS;binaire|entier|relatif
11;Quelle est la valeur de l’entier négatif <tt>–42</tt> codé en complément à deux sur un octet (8 bits) ?;<tt>-1101 0110</tt>;<tt>0010 1010</tt>;<tt>1101 0101</tt>;<tt>0010 1010</tt>;BNS;binaire|entier|relatif
11;À quoi sert le codage en complément à 2 ?;à coder des nombres entiers négatifs en binaire;à inverser un nombre binaire;à convertir un nombre en hexadécimal;à multiplier par 2 un nombre en binaire;BNS;binaire|entier|relatif
11;On rappelle que le nombre entier 12 s’écrit <tt>1100</tt> en base 2. Quel est le codage en complément à 2 sur un octet du nombre entier -12 ?;<tt>1111 0100</tt>;<tt>-0000 1100</tt>;<tt>1000 1100</tt>;<tt>1111 0011</tt>;BNS;binaire|entier|relatif
11;Quelle est l'écriture binaire sur 8 bits en complément à deux de l'entier négatif <tt>-108</tt> ?;<tt>1001 0100</tt>;<tt>1000 1000</tt>;<tt>1110 1100</tt>;<tt>0110 1100</tt>;BNS;binaire|entier|relatif
11;Quelle est la séquence de bit qui représente –25 en complément à 2 sur 8 bits ?;<tt>1110 0111</tt>;<tt>0001 1001</tt>;<tt>0001 1010</tt>;<tt>1110 0110</tt>;BNS;binaire|entier|relatif
11;L'écriture décimale du nombre <tt>1001 1101</tt> écrit sur 8 bits en complément à 2 est :;<tt>–99</tt>;<tt>–4</tt>;<tt>–29</tt>;<tt>157</tt>;BNS;binaire|entier|relatif
11;Quelle est la représentation binaire sur un octet (c'est-à-dire sur 8 bits) de l'entier <tt>-26</tt> ?;<tt>1110 0110</tt>;<tt>-001 1010</tt>;<tt>1110 0100</tt>;<tt>1110 0101</tt>;BNS;binaire|entier|relatif
11;"Un entier positif est représenté sur 8 bits par <tt>0001 0110</tt>.

En utilisant le complément à 2, quelle est la représentation sur 8 bits de son opposé ?";<tt>1110 1010</tt>;<tt>1001 0110</tt>;<tt>1110 1001</tt>;<tt>1001 0111</tt>;BNS;binaire|entier|relatif
11;Quelle est l'écriture binaire, en complément à 2 sur 8 bits, du nombre entier négatif <tt>–13</tt> ?;<tt>1111 0011</tt>;<tt>-0111 0010</tt>;<tt>-0000 1101</tt>;<tt>1111 0010</tt>;BNS;binaire|entier|relatif
11;Quelle est la représentation binaire en complément à deux sur huit bits du nombre <tt>–3</tt> ?;<tt>1111 1101</tt>;<tt>1000 0011</tt>;<tt>1 0000 0011</tt>;<tt>1111 1100</tt>;BNS;binaire|entier|relatif
11;Quelle est la représentation en binaire signé en complément à 2 de l’entier <tt>-1</tt> sur un octet ?;<tt>1111 1111</tt>;<tt>1000 0000</tt>;<tt>1000 0001</tt>;<tt>1111 1110</tt>;BNS;binaire|entier|relatif
11;En binaire, quelle est l'écriture de l'entier négatif <tt>–58</tt> codé en complément à deux sur un octet (huit bits) ?;<tt>1100 0110</tt>;<tt>1100 0100</tt>;<tt>0011 1010</tt>;<tt>1011 1010</tt>;BNS;binaire|entier|relatif
