categorie;enonce;reponse_1;reponse_2;reponse_3;reponse_4;auteur;tags
11;En Python, combien vaut : <tt>2**4</tt> ?;<tt>16</tt>;<tt>32</tt>;<tt>0.25</tt>;<tt>8</tt>;Raphael Chay;première|python|operation|maths
11;"Quelle est la valeur de la variable <tt>a</tt> en fin de script si l'utilisateur entre le nombre 6 ?
<python>
a = int(input())
a = a + a
</python>";<tt>12</tt>;<tt>6</tt>;<tt>'66'</tt>;<tt>'12'</tt>;Raphael Chay;première|python|type|input
16;"Qu'affiche le script ci-dessous ?
<python>
n = 0
for i in range(3) :
    n = n + 1
print(n)
</python>";<tt>3</tt>;<tt>2</tt>;<tt>0, 1, 2, 3</tt>;<tt>0, 1, 2</tt>;Raphael Chay;première|python|for|range|boucle
16;"On considère une fonction <tt>reduction</tt> définie de la manière suivante :
<python>
def reduction(a):
    while a >= 1:
        a = a / 2
    return a
</python>
Quelle est la valeur retournée par l'instruction <tt>reduction(4)</tt> ?";<tt>0.5</tt>;<tt>0.25</tt>;<tt>2.0</tt>;<tt>1.0</tt>;Raphael Chay;première|python|boucle|while|fonction
11;Quel est le résultat de l'instruction <tt>7 % 4</tt> ?;<tt>3</tt>;<tt>1.75</tt>;<tt>1</tt>;<tt>2</tt>;Raphael Chay;première|python|operation|maths|modulo
11;Quel est le résultat de l'instruction <tt>9 // 2</tt> ?;<tt>4</tt>;<tt>4.5</tt>;<tt>8</tt>;<tt>18</tt>;Raphael Chay;première|python|operation|maths|division
11;"Quelle est la valeur de la variable <tt>a</tt> à la fin du script ci-dessous ?
	
<python>
n = 5
a = 0
while n > 0:
    n = n - 1
    a = a + 2
</python>";<tt>10</tt>;<tt>5</tt>;<tt>8</tt>;La boucle est infinie;Raphael Chay;première|python|boucle|while
11;"Que donne l’exécution du programme suivant ?
<python>
a = 5
b = 4
if a == 5 :
    b = b + 1
else :
    a = a - 1
if b == 5 :
    a = a - 1
else :
    b = b + 1
</python>";<tt>a = 4</tt> et <tt>b = 5</tt>;<tt>a = 5</tt> et <tt>b = 6</tt>;<tt>a = 3</tt> et <tt>b = 6</tt>;<tt>a = 3</tt> et <tt>b = 4</tt>;Raphael Chay;première|python|condition|elif|if
11;"Quelle est la valeur de la variable <tt>a</tt> à la fin de l’exécution du script ci-dessous ?
<python>
a = 24
if a < 16:
    a = 32
elif a < 128:
    a = 256
elif a < 1024:
    a = 0
</python>";<tt>256</tt>;<tt>24</tt>;<tt>1024</tt>;<tt>32</tt>;Raphael Chay;première|python|condition|elif|if
11;"Quelle est la valeur de la variable <tt>b</tt> à la fin de l’exécution du script ci-dessous ?
<python>
b = 16
if b > 8:
    b = 128
if b > 64:
    b = 1024
if b > 512:
    b = 2048
</python>";<tt>2048</tt>;<tt>16</tt>;<tt>1024</tt>;<tt>128</tt>;Raphael Chay;première|python|condition|if
11;"Qu'affiche le script Python suivant ?
<python>
a = '2'
n = 5
print(n * a)
</python>";<tt>'22222'</tt>;<tt>10</tt>;<tt>'55'</tt>;<tt>'5252'</tt>;Raphael Chay;première|python|type|string
11;"On définit une fonction pour calculer l’aire d’un triangle de la manière suivante :
<python>
def aire(base, hauteur):
    return base * hauteur / 2 
</python>
Quelle est l'erreur qui générée par l'instruction <tt>aire(12, 5)</tt> ?";<tt>IndentationError</tt>;<tt>SyntaxError</tt>;<tt>NameError</tt>;<tt>KeyError</tt>;Raphael Chay;première|python|fonction|erreur
11;"On exécute le script ci-dessous :
<python>
i = 0
while i < 5:
    i += 1
    if i == 3:
        break
print(i + 1)
</python>
Quelle est la valeur affichée à l'écran ?";<tt>4</tt>;<tt>3</tt>;<tt>5</tt>;<tt>0</tt>;Raphael Chay;première|python|while|if|break
11;Quelle est l'instruction Python permettant d'afficher le message <tt>Hello World</tt> à l'écran en Python ?;<tt>print('Hello World')</tt>;<tt>echo 'Hello World'</tt>;<tt>console.log('Hello World')</tt>;<tt>display('Hello World')</tt>;Raphael Chay;première|python|print
11;Comment peut-on insérer un commentaire dans du code Python ?;<tt># ceci est un commentaire</tt>;<tt>// ceci est un commentaire</tt>;<tt>% ceci est un commentaire</tt>;<tt>*/ ceci est un commentaire  */</tt>;Raphael Chay;première|python|commentaire
11;Quel est le mot-clé à utiliser pour définir une fonction en Python ?;<tt>def</tt>;<tt>return</tt>;<tt>func</tt>;<tt>function</tt>;Raphael Chay;première|python|fonction|def
16;Quels sont les mots-clés permettant de réaliser une boucle en Python ?;<tt>for</tt> et <tt>while</tt>;<tt>for</tt> et <tt>if</tt>;<tt>if</tt> et <tt>while</tt>;<tt>if</tt> et <tt>elif</tt>;Raphael Chay;première|python|boucle
11;Quel est l'opérateur utilisé pour multiplier 2 nombres entre eux en Python ?;<tt>*</tt>;<tt>%</tt>;<tt>X</tt>;<tt>==</tt>;Raphael Chay;première|python|operation|maths
11;Quel est l'opérateur utilisé pour tester l'égalité de 2 valeurs ?;<tt>==</tt>;<tt>=</tt>;<tt>??</tt>;<tt>%</tt>;Raphael Chay;première|python|condition
16;Quel est le mot clé permettant de sortir d'une boucle en Python ?;<tt>return</tt>;<tt>break</tt>;<tt>stop</tt>;<tt>exit</tt>;Raphael Chay;première|python|boucle|break
12;"On définit une liste <tt>fruits</tt> de la manière suivante :
<python>
fruits = ['coco', 'kiwi', 'mure', 'poire']
</python>
Quelle est l'instruction permettant d'accéder à <tt>'kiwi'</tt> ?";<tt>fruits[1]</tt>;<tt>fruits[2]</tt>;<tt>fruits(1)</tt>;<tt>fruits(2)</tt>;Raphael Chay;première|python|liste
12;"On définit la liste <tt>nombres</tt> de la manière suivante :
<python>
nombres = [0, 5, 10, 15, 20, 25]
</python>
Quelle est la valeur de <tt>nombres</tt> après l'exécution de la commande ci-dessous ?
<python>
nombres.append(2)
</python>";<tt>[0, 5, 10, 15, 20, 25, 2]</tt>;<tt>[2, 0, 5, 10, 15, 20, 25]</tt>;<tt>[0, 5, 2, 10, 15, 20, 25]</tt>;<tt>[2, 7, 12, 17, 22, 27, 32]</tt>;Raphael Chay;première|python|liste|append
12;"On définit la liste <tt>nombres</tt> de la manière suivante :
<python>
nombres = [0, 5, 10, 15]
</python>
Quel est le résultat de l'instruction <tt>len(nombres)</tt> ?";<tt>4</tt>;<tt>30</tt>;<tt>15</tt>;<tt>0</tt>;Raphael Chay;première|python|liste|len
12;"On définit la liste <tt>atomes</tt> de la manière suivante :
<python>
atomes = ['fer', 'carbone', 'azote', 'zinc', 'helium']
</python>
On souhaite rajouter la valeur <tt>'oxygene'</tt> à la fin de la liste <tt>'atomes'</tt>. Quelle est l'instruction Python à utiliser ?";<tt>atomes.append('oxygene')</tt>;<tt>atomes.add('oxygene')</tt>;<tt>atomes.insert('oxygene')</tt>;<tt>atomes.extend('oxygene')</tt>;Raphael Chay;première|python|liste|append
12;"On définit la liste <tt>symboles</tt> de la manière suivante :
<python>
symboles = ['H', 'He', 'Li', 'Be', 'B', 'C', 'N', 'O', 'F', 'Ne']
</python>
On souhaite compter le nombre d'éléments de la liste <tt>'symboles'</tt>. Quelle est l'instruction Python à utiliser ?";<tt>len(symboles)</tt>;<tt>count(symboles)</tt>;<tt>symboles.length()</tt>;<tt>dim(symboles)</tt>;Raphael Chay;première|python|liste|len
17;"On considère le script ci-dessous :
<python>
liste1 = [0, 5, 10, 15, 10, 5, 10]
t = liste1[0]
for nombre in liste1:
    if nombre > t:
        t = nombre
</python>
A quoi correspond <tt>t</tt> à la fin du script ?";<tt>t</tt> est la valeur maximale de <tt>liste1</tt>;<tt>t</tt> est la valeur minimale de <tt>liste1</tt>;<tt>t</tt> est la valeur moyenne des éléments de <tt>liste1</tt>;<tt>t</tt> est la somme des éléments de <tt>liste1</tt>;Raphael Chay;python|algorithme|extremum
17;"On considère le script ci-dessous :
<python>
liste1 = [10, 15, 10, 5, 10, 15, 20]
t = liste1[0]
for nombre in liste1:
    if nombre < t:
        t = nombre
</python>
A quoi correspond <tt>t</tt> à la fin du script ?";<tt>t</tt> est la valeur minimale de <tt>liste1</tt>;<tt>t</tt> est la valeur maximale de <tt>liste1</tt>;<tt>t</tt> est la valeur moyenne des éléments de <tt>liste1</tt>;<tt>t</tt> est la somme des éléments de <tt>liste1</tt>;Raphael Chay;python|algorithme|extremum
17;"On considère le script ci-dessous :
<python>
liste1 = [0, 5, 10, 15, 10, 5, 10]
t = 0
for nombre in liste1:
    t = t + nombre
</python>
A quoi correspond <tt>t</tt> à la fin du script ?";<tt>t</tt> est la somme des éléments de <tt>liste1</tt>;<tt>t</tt> est la valeur maximale de <tt>liste1</tt>;<tt>t</tt> est la valeur minimale de <tt>liste1</tt>;<tt>t</tt> est la somme des éléments de <tt>liste1</tt>;Raphael Chay;python|liste|algorithme|somme
17;"On considère le script ci-dessous :
<python>
couleurs = ['rouge', 'vert', 'orange', 'violet', 'magenta', 'bleu', 'jaune']
m = len(couleurs[0])
for element in couleurs:
    if len(element) > m:
        m = len(element)
</python>
A quoi correspond <tt>m</tt> à la fin du script ?";<tt>m</tt> est le nombre de lettres du plus long mot de <tt>couleurs</tt>;<tt>m</tt> est le plus long mot de <tt>couleurs</tt>;<tt>m</tt> est le mot de <tt>couleurs</tt> contenant le plus de voyelles;<tt>m</tt> est le dernier élément de <tt>couleurs</tt>;Raphael Chay;python|liste|algorithme|premiere
16;Quel est le mot-clé permettant de réaliser une boucle bornée en Python ?;<tt>for</tt>;<tt>while</tt>;<tt>break</tt>;<tt>elif</tt>;Raphael Chay;python|for|boucle
16;Quel est le mot-clé permettant de réaliser une boucle non-bornée en Python ?;<tt>while</tt>;<tt>for</tt>;<tt>return</tt>;<tt>else</tt>;Raphael Chay;python|boucle|while
16;Quelle est la condition permettant de tester si un entier <tt>n</tt> est pair en Python ?;<tt>n%2 == 0</tt>;<tt>n%2 == 1</tt>;<tt>n//2 == 0</tt>;<tt>n//2 == 1</tt>;Raphael Chay;python|modulo|parité
16;Quelle est la condition permettant de tester si un entier <tt>n</tt> est impair en Python ?;<tt>n%2 == 1</tt>;<tt>n%2 == 0</tt>;<tt>n//2 == 0</tt>;<tt>n//2 == 0</tt>;Raphael Chay;python|modulo|parité
12;"On définit un dictionnaire <tt>vitesse</tt> pour stocker les valeurs de la vitesse du son en fonction du milieu :
<python>
vitesse = {'air': 340,
           'eau': 1480,
           'glace': 3200,
           'verre': 5300}
</python>
<tt>'air'</tt>, <tt>'eau'</tt>, <tt>'glace'</tt> et <tt>'verre'</tt> sont les :";clés du dictionnaire;valeurs du dictionnaire;arguments du dictionnaire;propriétés du dictionnaire;Raphael Chay;python|dictionnaire
12;Quelle est l'expression permettant de créer un dictionnaire ?;<tt>codes = {'france': 33, 'chili': 56, 'japon': 81, 'inde': 91}</tt>;<tt>codes = [('france', 33), ('chili', 56), ('japon', 81), ('inde', 91)]</tt>;<tt>codes = ['france': 33, 'chili': 56, 'japon': 81, 'inde': 91]</tt>;<tt>codes = [{'france', 33}, {'chili', 56}, {'japon', 81}, {'inde', 91}]</tt>;Raphael Chay;python|dictionnaire
12;"On exécute les commandes suivantes dans une console Python :
<python>
>>> pop = {'fr': 67.0, 'mx': 126.6, 'us': 330.3, 'kr': 51.8}
>>> pop['us']
</python>
Quel est le résultat affiché ?";<tt>330.3</tt>;<tt>True</tt>;<tt>KeyError</tt>;<tt>3</tt>;Raphael Chay;python|dictionnaire
12;"On exécute les commandes suivantes dans une console Python :
<python>
>>> pnb = {'ge': 4000.4, 'uk': 2828.7, 'fr': 2775.3, 'it': 2072.2}
>>> pnb['ru']
</python>
Quel est le résultat affiché ?";<tt>KeyError</tt>;<tt>False</tt>;<tt>null</tt>;<tt>0</tt>;Raphael Chay;python|dictionnaire
12;"On exécute les commandes suivantes dans une console Python :
<python>
>>> carbone_14 = {'symbole': 'C', 'A': 14, 'Z': 6, 'm': 2.32e-26}
>>> 'masse' in carbone_14.keys()
</python>
Quel est le résultat affiché ?";<tt>False</tt>;<tt>True</tt>;<tt>2.32e-26</tt>;<tt>KeyError</tt>;Raphael Chay;python|dictionnaire
11;"On définit un dictionnaire <tt>couleurs</tt> de la façon suivante :
<python>
couleurs = {'#000000': 'noir',
            '#FFFFFF': 'blanc',
            '#FF0000': 'rouge',
            '#00FF00': 'vert',
            '#0000FF': 'bleu'}
</python>
Quel est le résultat de la commande suivante ?
<python>
'vert' in couleurs.values()
</python>";<tt>True</tt>;<tt>'#00FF00'</tt>;<tt>3</tt>;<tt>(0, 255, 0)</tt>;Raphael Chay;python|dictionnaire
12;"On exécute les commandes suivantes dans une console Python :
<python>
>>> dep = {10: 'aube', 18: 'cher', 30: 'gard', 46: 'lot'}
>>> dep['cher']
</python>
Quel est le résultat affiché ?";<tt>KeyError</tt>;<tt>18</tt>;<tt>(18, 'cher')</tt>;<tt>'cher'</tt>;Raphael Chay;python|dictionnaire
11;"On exécute le programme ci-dessous :
<python>
dico = {}
mot = 'abracadabra'
for lettre in mot:
    if lettre in dico.keys():
        dico[lettre] += 1
    else:
        dico[lettre] = 1
</python>
Quelle est la valeur de <tt>dico</tt> à la fin du programme ?";<tt>{'a': 5, 'b': 2, 'r': 2, 'c': 1, 'd': 1}</tt>;<tt>{5: 'a', 2: 'b', 2: 'r', 1: 'c', 1: 'd'}</tt>;<tt>{('a', 5), ('b', 2), ('r', 2), ('c', 1), ('d', 1)}</tt>;<tt>{['a', 5], ['b', 2], ['r', 2], ['c', 1], ['d', 1]}</tt>;Raphael Chay;python|dictionnaire
14;Choisir la proposition correcte :;Le Web est une des applications d'Internet.;Internet et le Web sont des réseaux différents.;Le Web et Internet sont deux termes désignant la même chose.;Internet est un sous-réseau du Web.;Raphael Chay;web|internet
14;En quelle année le Web a-t-il été inventé ?;1989;1952;1977;2004;Raphael Chay;réseau|web|internet
14;Le web a été inventé par :;Tim Berners-Lee et Robert Cailliau;Guido van Rossum et Brendan Eich;Vint Cerf et Bob Kahn;Donald Davies et Paul Baran;Raphael Chay;web|internet
